<svg width="12" height="7" viewBox="0 0 12 7" fill="none" xmlns="http://www.w3.org/2000/svg">
<rect opacity="0.5" width="12" height="1" fill="#8A8380"/>
<rect opacity="0.5" y="3" width="8" height="1" fill="#8A8380"/>
<rect opacity="0.5" y="6" width="5" height="1" fill="#8A8380"/>
</svg>
