<?xml version="1.0" encoding="UTF-8"?>
<svg width="15px" height="11px" viewBox="0 0 15 11" version="1.1" xmlns="http://www.w3.org/2000/svg" xmlns:xlink="http://www.w3.org/1999/xlink">
    <!-- Generator: Sketch 46.2 (44496) - http://www.bohemiancoding.com/sketch -->
    <title>icon</title>
    <desc>Created with Sketch.</desc>
    <defs></defs>
    <g id="Page-1" stroke="none" stroke-width="1" fill="none" fill-rule="evenodd">
        <g id="UI-элементы" transform="translate(-334.000000, -807.000000)" fill="#323232">
            <g id="icon" transform="translate(334.000000, 807.000000)">
                <rect id="Rectangle-6" x="4" y="0" width="3" height="3" rx="1"></rect>
                <rect id="Rectangle-6" x="4" y="4" width="3" height="3" rx="1"></rect>
                <rect id="Rectangle-6" x="4" y="8" width="3" height="3" rx="1"></rect>
                <rect id="Rectangle-6" x="8" y="0" width="3" height="3" rx="1"></rect>
                <rect id="Rectangle-6" x="8" y="4" width="3" height="3" rx="1"></rect>
                <rect id="Rectangle-6" x="8" y="8" width="3" height="3" rx="1"></rect>
                <rect id="Rectangle-6" x="12" y="0" width="3" height="3" rx="1"></rect>
                <rect id="Rectangle-6" x="12" y="4" width="3" height="3" rx="1"></rect>
                <rect id="Rectangle-6" x="0" y="4" width="3" height="3" rx="1"></rect>
                <rect id="Rectangle-6" x="0" y="8" width="3" height="3" rx="1"></rect>
            </g>
        </g>
    </g>
</svg>