<?xml version="1.0" encoding="UTF-8"?>
<svg width="23px" height="27px" viewBox="0 0 23 27" version="1.1" xmlns="http://www.w3.org/2000/svg" xmlns:xlink="http://www.w3.org/1999/xlink">
    <!-- Generator: Sketch 46.2 (44496) - http://www.bohemiancoding.com/sketch -->
    <title>log-out</title>
    <desc>Created with Sketch.</desc>
    <defs></defs>
    <g id="Page-1" stroke="none" stroke-width="1" fill="none" fill-rule="evenodd" stroke-linecap="round" stroke-linejoin="round">
        <g id="боковое-меню" transform="translate(-186.000000, -789.000000)" stroke="#A0A0A0" stroke-width="1.5">
            <g id="log-out" transform="translate(187.000000, 790.000000)">
                <polyline id="Path-13" transform="translate(2.930556, 12.442871) rotate(-360.000000) translate(-2.930556, -12.442871) " points="5.36111147 7.38574246 0.5 12.5842693 5.36111147 17.5"></polyline>
                <path d="M7.5,5.5 L7.5,18.5" id="Line" transform="translate(8.000000, 12.000000) rotate(-90.000000) translate(-8.000000, -12.000000) "></path>
                <polyline id="Path-11" points="11 7.86516854 11 2.24719101 20.4444444 0 20.4444444 25 11 22.1910112 11 17.1348315"></polyline>
            </g>
        </g>
    </g>
</svg>