<?xml version="1.0" encoding="UTF-8"?>
<svg width="28px" height="18px" viewBox="0 0 28 18" version="1.1" xmlns="http://www.w3.org/2000/svg" xmlns:xlink="http://www.w3.org/1999/xlink">
    <!-- Generator: Sketch 46.2 (44496) - http://www.bohemiancoding.com/sketch -->
    <title>Combined Shape</title>
    <desc>Created with Sketch.</desc>
    <defs></defs>
    <g id="Page-1" stroke="none" stroke-width="1" fill="none" fill-rule="evenodd">
        <g id="боковое-меню" transform="translate(-493.000000, -272.000000)" fill-rule="nonzero" fill="#FFFFFF">
            <g id="icon" transform="translate(490.000000, 264.000000)">
                <path d="M28.4842637,9.5 L17.5407426,20.6389411 L13.1450052,15.2698617 C12.867622,14.9310581 12.364301,14.9078192 12.0579213,15.2196699 L3.21581606,24.2196699 C2.92806131,24.5125631 2.92806131,24.9874369 3.21581606,25.2803301 C3.5035708,25.5732233 3.97011341,25.5732233 4.25786815,25.2803301 L12.5294328,16.8610589 L16.9251703,22.2301383 C17.2025534,22.5689419 17.7058745,22.5921808 18.0122541,22.2803301 L29.5263158,10.5606602 L29.5263158,17.75 C29.5263158,18.1642136 29.8562112,18.5 30.2631579,18.5 C30.6701046,18.5 31,18.1642136 31,17.75 L31,8.75 C31,8.33578644 30.6701046,8 30.2631579,8 L21.4210526,8 C21.014106,8 20.6842105,8.33578644 20.6842105,8.75 C20.6842105,9.16421356 21.014106,9.5 21.4210526,9.5 L28.4842637,9.5 Z" id="Combined-Shape"></path>
            </g>
        </g>
    </g>
</svg>